[
  {
      "title": "a-1",
      "placement": "A",
      "complexity": 7,
      "materials": "ETFE Foil, Plywood, Galvanised Steel",
      "position": "48.23170689588859, 16.414945709265965",
      "video": "X",
      "sound": "X"
  },
  {
      "title": "a-2",
      "placement": "A",
      "complexity": 7,
      "materials": "ETFE Foil, Galvanised Steel ",
      "position": "48.22066578175768, 16.364485166018735",
      "video": "X",
      "watermark": "vorher a-3 location",
      "sound": "X"
  },
  {
      "title": "a-5",
      "placement": "A",
      "complexity": 1,
      "materials": "Galvanised Steel, PVC Fabric",
      "position": "48.2177171681139, 16.363540054360037",
      "video": "X",
      "sound": "X"
  },
  {
      "title": "a-8",
      "placement": "A",
      "complexity": 2,
      "materials": "Bamboo, Canvas",
      "position": "48.213629986898816, 16.319420384076906",
      "video": "X",
      "watermark": "watermark",
      "sound": "X"
  },
  {
      "title": "a-9",
      "placement": "A",
      "complexity": 3,
      "materials": "Galvanised Steel, Gossamer Fabric",
      "position": "48.23377392999664, 16.36656711436102",
      "video": "X",
      "watermark": "watermark",
      "sound": "X"
  },
  {
      "title": "a-10",
      "placement": "A",
      "complexity": 5,
      "materials": "Galvanised Steel, Gossamer Fabric, PVC Fabric",
      "position": "48.19417543320643, 16.353941544875056",
      "video": "X",
      "sound": "X"
  },
  {
      "title": "a-11",
      "placement": "A",
      "complexity": 4,
      "materials": "PVC Membrane, Aluminium",
      "position": "48.19521358887614, 16.364911364520182",
      "video": "X",
      "sound": "X"
  },
  {
      "title": "a-12",
      "placement": "A",
      "complexity": 4,
      "materials": "PVC Membrane, Aluminium",
      "position": "48.19521358887614, 16.364911364520182",
      "video": "a-13",
      "sound": "X"
  },
  {
      "title": "a-13",
      "placement": "A",
      "complexity": 5,
      "materials": "Semitransparent PVC, Galvanised Steel",
      "position": "48.197074025018054, 16.37370726216046",
      "video": "X",
      "sound": "X"
  },
  {
      "title": "a-15",
      "placement": "A",
      "complexity": 3,
      "materials": "Galvanised Steel, Fabric Canvas",
      "position": "48.19321213517592, 16.362754678079536",
      "video": "X",
      "sound": "X"
  },
  {
      "title": "a-16",
      "placement": "A",
      "complexity": 5,
      "materials": "Semitransparent PVC, Galvanised Steel",
      "position": "48.19844383684127, 16.374345514878947",
      "video": "X",
      "sound": "X"
  },
  {
      "title": "a-17",
      "placement": "A",
      "complexity": 6,
      "materials": "Galvanised Steel, Gossamer Fabric",
      "position": "48.22343817220216, 16.383826087784527",
      "video": "X",
      "sound": "X"
  },
  {
      "title": "a-18",
      "placement": "A",
      "complexity": 6,
      "materials": "Galvanised Steel, Gossamer Fabric",
      "position": "48.219623656714276, 16.375936301078706",
      "video": "X",
      "sound": "X"
  },
  {
      "title": "a-19",
      "placement": "A",
      "complexity": 6,
      "materials": "Galvanised Steel, Gossamer Fabric",
      "position": "48.213704970525235, 16.370347529481013",
      "video": "X",
      "sound": "X"
  },
  {
      "title": "a-20",
      "placement": "A",
      "complexity": 6,
      "materials": "Teak Wood, Stainless Steel",
      "position": "48.206744356872186, 16.36854769890476",
      "video": "a-16",
      "sound": "X"
  },
  {
      "title": "a-21",
      "placement": "A",
      "complexity": 7,
      "materials": "Teak Wood, Galvanised Steel",
      "position": "48.21125384128439, 16.35353118136208",
      "video": "c-3",
      "sound": "a-16"
  },
  {
      "title": "a-22",
      "placement": "A",
      "complexity": 7,
      "materials": "Beech Wood",
      "position": "48.192140953267575, 16.343841458541917",
      "video": "a-5",
      "sound": "X"
  },
  {
      "title": "a-23",
      "placement": "A",
      "complexity": 6,
      "materials": "Beech Wood",
      "position": "48.18283068169279, 16.354431961569905",
      "video": "b-6",
      "sound": "X"
  },
  {
      "title": "a-24",
      "placement": "A",
      "complexity": 6,
      "materials": "Alloy Steel, Rayon Fabric ",
      "position": "48.21116135511345, 16.34192070771252",
      "video": "b-5",
      "sound": "X"
  },
  {
      "title": "a-25",
      "placement": "A",
      "complexity": 5,
      "materials": "Carbon Steel",
      "position": "48.21201929503998, 16.352821204927317",
      "video": "c-3",
      "sound": "X"
  },
  {
      "title": "a-27",
      "placement": "A",
      "complexity": 4,
      "materials": "Galvanised Steel",
      "position": "48.20063977245105, 16.382543150006047",
      "video": "c-11",
      "sound": "a-25"
  },
  {
      "title": "a-28",
      "placement": "A",
      "complexity": 1,
      "materials": "Beech Wood, Fabric Canvas",
      "position": "48.19819798197295, 16.362676614622487",
      "video": "c-15",
      "sound": "X"
  },
  {
      "title": "a-29",
      "placement": "A",
      "complexity": 3,
      "materials": "Plywood",
      "position": "48.22089490814297, 16.372325270243632",
      "video": "c-2",
      "sound": "X"
  },
  {
      "title": "a-30",
      "placement": "A",
      "complexity": 3,
      "materials": "Translucid Polycarbonate, Gossamer Steel",
      "position": "48.23290690150002, 16.371123687103356",
      "video": "c-8",
      "sound": "X"
  },
  {
      "title": "a-31",
      "placement": "A",
      "complexity": 3,
      "materials": "Plywood, Galvanised Steel",
      "position": "48.24205827655833, 16.36655983952129",
      "video": "a-9",
      "sound": "X"
  },
  {
      "title": "a-32",
      "placement": "A",
      "complexity": 3,
      "materials": "Stainless Steel",
      "position": "48.19665959457834, 16.35416840001866",
      "video": "b-5\n",
      "sound": "X"
  },
  {
      "title": "a-33",
      "placement": "A",
      "complexity": 4,
      "materials": "Galvanised Steel",
      "position": "48.1768384214643, 16.37096619318929",
      "video": "c-3",
      "sound": "X"
  },
  {
      "title": "a-34",
      "placement": "A",
      "complexity": 3,
      "materials": "Galvanised Steel, Gossamer Fabric",
      "position": "48.209713038301345, 16.36325978981295",
      "video": "a-5",
      "sound": "X"
  },
  {
      "title": "a-35",
      "placement": "A",
      "complexity": 7,
      "materials": "Galvanised Steel, Gossamer Fabric",
      "position": "48.20812027428845, 16.373641645380808",
      "video": "a-19",
      "sound": "X"
  },
  {
      "title": "b-1",
      "placement": "B",
      "complexity": 7,
      "materials": "Aluminium Alloy, Sheer Fabric",
      "position": "48.23085348781362, 16.364107358157472",
      "video": "X",
      "sound": "X"
  },
  {
      "title": "b-2",
      "placement": "B",
      "complexity": 8,
      "materials": "Aluminium, Gossamer Fabric",
      "position": "48.20252537238798, 16.36346097163042",
      "video": "X",
      "sound": "X"
  },
  {
      "title": "b-3",
      "placement": "B",
      "complexity": 7,
      "materials": "Plywood, Fabric Canvas",
      "position": "48.20692986892893, 16.367807337610966",
      "video": "X",
      "sound": "b-2"
  },
  {
      "title": "b-4",
      "placement": "B",
      "complexity": 8,
      "materials": "Aluminium Alloy, Gossamer Fabric",
      "position": "48.211858179915296, 16.36445088074993",
      "video": "X",
      "sound": "b-2"
  },
  {
      "title": "b-5",
      "placement": "B",
      "complexity": 5,
      "materials": "Nylon Nets",
      "position": "48.20014732377245, 16.382920879147314",
      "video": "X",
      "sound": "X"
  },
  {
      "title": "b-6",
      "placement": "B",
      "complexity": 5,
      "materials": "Nylon Nets",
      "position": "48.201962735636116, 16.34840506149538",
      "video": "X",
      "sound": "X"
  },
  {
      "title": "b-7",
      "placement": "B",
      "complexity": 4,
      "materials": "Nylon Nets",
      "position": "48.20623322028376, 16.347779193574713",
      "video": "X",
      "sound": "b-5"
  },
  {
      "title": "b-8",
      "placement": "B",
      "complexity": 4,
      "materials": "Nylon Nets, Steel wires",
      "position": "48.21276864133308, 16.37263659065186",
      "video": "X",
      "sound": "b-5"
  },
  {
      "title": "b-10",
      "placement": "B",
      "complexity": 7,
      "materials": "Bald Cypress Wood",
      "position": "48.22407917333608, 16.39717142696084",
      "video": "X",
      "sound": "X"
  },
  {
      "title": "b-11",
      "placement": "B",
      "complexity": 7,
      "materials": "Translucent Fabric, Galvanised Steel",
      "position": "48.22051077159222, 16.407053645599813",
      "video": "X",
      "sound": "X"
  },
  {
      "title": "b-12",
      "placement": "B",
      "complexity": 9,
      "materials": "Carbonate Steel",
      "position": "48.225360721575676, 16.3990950649615",
      "video": "X",
      "sound": "b-6"
  },
  {
      "title": "b-13",
      "placement": "B",
      "complexity": 9,
      "materials": "TulipWood, Straw Ropes",
      "position": "48.20425826174499, 16.396833394986437",
      "video": "X",
      "sound": "b-6"
  },
  {
      "title": "b-14",
      "placement": "B",
      "complexity": 8,
      "materials": "Douglas fir, Straw Ropes, Silk Fabric",
      "position": "48.21504125266188, 16.37867850090662",
      "video": "X",
      "sound": "X"
  },
  {
      "title": "b-17",
      "placement": "B",
      "complexity": 7,
      "materials": "Plywood, Galvanised Steel",
      "position": "48.21504125266188, 16.37867850090662",
      "video": "b-14",
      "sound": "X"
  },
  {
      "title": "b-18",
      "placement": "B",
      "complexity": 7,
      "materials": "Plywood, Organic Cotton",
      "position": "48.21722604648941, 16.379615324710556",
      "video": "X",
      "sound": "X"
  },
  {
      "title": "b-19",
      "placement": "B",
      "complexity": 7,
      "materials": "Plywood",
      "position": "48.2233789556477, 16.367304872937595",
      "video": "c-10",
      "sound": "b-17"
  },
  {
      "title": "b-20",
      "placement": "B",
      "complexity": 9,
      "materials": "Douglas fir",
      "position": "48.208495809304054, 16.34970820344515",
      "video": "c-14",
      "sound": "b-6"
  },
  {
      "title": "b-21",
      "placement": "B",
      "complexity": 8,
      "materials": "Beech Wood",
      "position": "48.20734892690463, 16.370878061868318",
      "video": "b-13",
      "sound": "X"
  },
  {
      "title": "b-22",
      "placement": "B",
      "complexity": 8,
      "materials": "Beech Wood",
      "position": "48.2011990792852, 16.367035220403828",
      "video": "b-14",
      "sound": "X"
  },
  {
      "title": "b-23",
      "placement": "B",
      "complexity": 8,
      "materials": "Aluminium",
      "position": "48.209999750840105, 16.37669722963282",
      "video": "a-19",
      "sound": "b-22"
  },
  {
      "title": "b-25",
      "placement": "B",
      "complexity": 7,
      "materials": "Galvanised Steel, Gossamer Fabric",
      "position": "48.22217516737646, 16.374493439899386",
      "video": "c-13",
      "sound": "X"
  },
  {
      "title": "b-26",
      "placement": "B",
      "complexity": 6,
      "materials": "Translucent Fabric, Galvanised Steel",
      "position": "48.19436504662412, 16.346999335228702",
      "video": "b-14",
      "sound": "b-11"
  },
  {
      "title": "b-27",
      "placement": "B",
      "complexity": 7,
      "materials": "TulipWood, Metallic Net",
      "position": "48.20333928249473, 16.35537014973943",
      "video": "b-1",
      "sound": "X"
  },
  {
      "title": "b-29",
      "placement": "B",
      "complexity": 5,
      "materials": "Plywood",
      "position": "48.20333928249473, 16.35537014973943",
      "video": "a-5",
      "sound": "X"
  },
  {
      "title": "c-1",
      "placement": "C",
      "complexity": 9,
      "materials": "TulipWood, Gossamer Fabric, Steel",
      "position": "48.20682747575678, 16.390154392317733",
      "video": "X",
      "sound": "X"
  },
  {
      "title": "c-2",
      "placement": "C",
      "complexity": 8,
      "materials": "Fabric Canvas, Galvanised Steel",
      "position": "48.233044786320136, 16.36564166510436",
      "video": "X",
      "sound": "X"
  },
  {
      "title": "c-3",
      "placement": "C",
      "complexity": 1,
      "materials": "Galvanised Steel",
      "position": "48.21834349389716, 16.36232515320141",
      "video": "X",
      "sound": "X"
  },
  {
      "title": "c-5",
      "placement": "C",
      "complexity": 7,
      "materials": "Aluminium, Galvanised Steel",
      "position": "48.20851536693862, 16.342153241603892",
      "video": "X",
      "sound": "X"
  },
  {
      "title": "c-6",
      "placement": "C",
      "complexity": 8,
      "materials": "Galvanised Steel",
      "position": "48.196560709325034, 16.344896468650283",
      "video": "X",
      "sound": "c-2"
  },
  {
      "title": "c-7",
      "placement": "C",
      "complexity": 8,
      "materials": "Galvanised Steel",
      "position": "48.19280965364141, 16.350382922898945",
      "video": "X",
      "watermark": "watermark",
      "sound": "c-2"
  },
  {
      "title": "c-8",
      "placement": "C",
      "complexity": 7,
      "materials": "Plywood",
      "position": "48.18525982146667, 16.35966769162745",
      "video": "X",
      "sound": "c-21"
  },
  {
      "title": "c-9",
      "placement": "C",
      "complexity": 7,
      "materials": "Bald Cypress, Galvanised Steel",
      "position": "48.2045307909324, 16.393922861793378",
      "video": "X",
      "sound": "X"
  },
  {
      "title": "c-10",
      "placement": "C",
      "complexity": 6,
      "materials": "Stainless Steel",
      "position": "48.206288207142585, 16.376132618803503",
      "video": "X",
      "sound": "X"
  },
  {
      "title": "c-11",
      "placement": "C",
      "complexity": 6,
      "materials": "Galvanised Steel",
      "position": "48.180698234807295, 16.413204428363713",
      "video": "X",
      "sound": "X"
  },
  {
      "title": "c-12",
      "placement": "C",
      "complexity": 5,
      "materials": "Galvanised Steel",
      "position": "48.212435743429225, 16.37090803371468",
      "video": "X",
      "sound": "X"
  },
  {
      "title": "c-13",
      "placement": "C",
      "complexity": 8,
      "materials": "Translucid plastic, Galvanised Steel",
      "position": "48.215662796750266, 16.38643127162832",
      "video": "X",
      "sound": "c-2"
  },
  {
      "title": "c-14",
      "placement": "C",
      "complexity": 6,
      "materials": "Gossamer Fabric, Steel",
      "position": "48.22808047901835, 16.35362175692403",
      "video": "X",
      "sound": "X"
  },
  {
      "title": "c-15",
      "placement": "C",
      "complexity": 6,
      "materials": "Mild Steel",
      "position": "48.22476104488961, 16.35259103274842",
      "video": "X",
      "sound": "c-21"
  },
  {
      "title": "c-16",
      "placement": "C",
      "complexity": 8,
      "materials": "Bald Cypress",
      "position": "48.21189850365821, 16.36432930306832",
      "video": "a-8",
      "sound": "a-8"
  },
  {
      "title": "c-17",
      "placement": "C",
      "complexity": 6,
      "materials": "Slash Pine ",
      "position": "48.20361848854581, 16.39594083114956",
      "video": "a-9",
      "sound": "a-30"
  },
  {
      "title": "c-18",
      "placement": "C",
      "complexity": 8,
      "materials": "Mild Steel",
      "position": "48.19727640272143, 16.386656540818226",
      "video": "a-16",
      "sound": "X"
  },
  {
      "title": "c-19",
      "placement": "C",
      "complexity": 9,
      "materials": "Mild Steel",
      "position": "48.207076407230225, 16.398231582751944",
      "video": "a-18",
      "sound": "c-2"
  },
  {
      "title": "c-20",
      "placement": "C",
      "complexity": 4,
      "materials": "Galvanised Steel, Polyethylene Canvas",
      "position": "48.222590383044114, 16.388800740574332",
      "video": "b-7",
      "sound": "b-18"
  },
  {
      "title": "c-21",
      "placement": "C",
      "complexity": 5,
      "materials": "Gossamer Fabric, Alloy Steel",
      "position": "48.2456881797473, 16.370690661011103",
      "video": "b-11",
      "sound": "X"
  },
  {
      "title": "c-22",
      "placement": "C",
      "complexity": 5,
      "materials": "ETFE Foil, Galvanised Steel ",
      "position": "48.222597330850505, 16.36276444521458",
      "video": "c-1",
      "sound": "c-21"
  },
  {
      "title": "c-23",
      "placement": "C",
      "complexity": 5,
      "materials": "Fabric Canvas, Galvanised Steel ",
      "position": "48.177110588934056, 16.365783164466798",
      "video": "c-12",
      "sound": "c-18"
  },
  {
      "title": "c-24",
      "placement": "C",
      "complexity": 5,
      "materials": "Galvanised Steel ",
      "position": "48.1758000854591, 16.382307517467243",
      "video": "a-16",
      "sound": "c-11"
  },
  {
      "title": "c-27",
      "placement": "C",
      "complexity": 7,
      "materials": "Fabric Canvas, Galvanised Steel ",
      "position": "48.21915495012228, 16.409205357958623",
      "video": "c-10",
      "sound": "c-18"
  }
]